…
# Organism: human

  
## Sample: GSM2254215_ML1,human,unique.rds

	
```r
# A tibble: 8,882,447 x 8
# Groups:   chr_a [25]
   chr_a start_a  end_a chr_b   start_b     end_b celltype cell_index
   <chr>   <int>  <int> <chr>     <int>     <int> <chr>         <int>
 1 1      648845 648891 1      16381046  16381090 HAP1             27
 2 1      706635 706674 1        715083    715157 HAP1             34
 3 1      706635 706674 1       1060448   1060506 HAP1             35
 4 1      706635 706674 1       1145206   1145262 HAP1             36
 5 1      712858 712888 1     223872404 223872539 HeLa             37
 6 1      715255 715294 1        930962    931037 HAP1             40
 7 1      718586 718645 1        718649    718768 HeLa             44
 8 1      718586 718645 1        926191    926430 HeLa             45
 9 1      718649 718768 1       7054834   7054981 HeLa             47
10 1      718649 718768 1     188962955 188962987 HeLa             48
# ... with 8,882,437 more rows
```
…
Cell types:
```r

   HAP1    HeLa 
2998051 5041548 
```

## Sample: GSM2254216_ML2,human,unique.rds

	
```r
# A tibble: 7,244,237 x 8
# Groups:   chr_a [25]
   chr_a start_a  end_a chr_b   start_b     end_b celltype cell_index
   <chr>   <int>  <int> <chr>     <int>     <int> <chr>         <int>
 1 1       91157  91258 1     227935823 227935868 HeLa              8
 2 1      126153 126339 1      31206229  31206347 HeLa             24
 3 1      648845 648891 1       1809163   1809226 HeLa             31
 4 1      651131 651255 1     109986897 109987136 HeLa             32
 5 1      706635 706674 1      51529139  51529378 HeLa             34
 6 1      712981 713019 1       5868412   5868478 HeLa             36
 7 1      715083 715157 1        862142    862192 HAP1             37
 8 1      715255 715294 1        945712    945803 HeLa              2
 9 1      716222 716252 1       1104425   1104469 <NA>              6
10 1      718586 718645 1        720638    720687 HAP1             42
# ... with 7,244,227 more rows
```
…
Cell types:
```r

   HAP1    HeLa 
2698488 3831724 
```

## Sample: GSM2254217_ML3,human,unique.rds

	
```r
# A tibble: 3,117,958 x 8
# Groups:   chr_a [25]
   chr_a start_a  end_a chr_b   start_b     end_b celltype cell_index
   <chr>   <int>  <int> <chr>     <int>     <int> <chr>         <int>
 1 1      124901 124934 1      43831291  43831325 GM12878           2
 2 1      603264 603503 1      30741246  30741322 K562              9
 3 1      706635 706674 1        926533    926650 K562             12
 4 1      706635 706674 1      39341389  39341430 K562             13
 5 1      715035 715157 1     155479070 155479128 GM12878          14
 6 1      716222 716252 1       1314922   1314965 K562             15
 7 1      718586 718645 1      31580001  31580035 K562             16
 8 1      718587 718645 1       1334579   1334628 K562             18
 9 1      718649 718768 1     204451866 204451951 K562             19
10 1      718863 718900 1        981127    981224 K562             20
# ... with 3,117,948 more rows
```
…
Cell types:
```r

GM12878    K562 
1408745 1541638 
```

## Sample: GSM2254218_PL1,human,unique.rds

	
```r
# A tibble: 8,855,074 x 8
# Groups:   chr_a [25]
   chr_a start_a  end_a chr_b   start_b     end_b celltype cell_index
   <chr>   <int>  <int> <chr>     <int>     <int> <chr>         <int>
 1 1       61943  62182 1     121281494 121281534 HeLa              7
 2 1       68255  68327 1      17465738  17465894 HeLa              8
 3 1       87117  87212 1     199945185 199945277 HeLa             14
 4 1      124901 124934 1     113159319 113159505 HAP1             16
 5 1      636630 636760 1        996345    996417 HeLa             28
 6 1      636630 636760 1      22064488  22064613 HeLa             29
 7 1      648845 648891 1        874123    874174 HAP1             31
 8 1      673118 673335 1        787985    788054 HeLa             35
 9 1      713195 713271 1      45604332  45604395 HeLa             38
10 1      713195 713271 1     113942769 113943008 HeLa             39
# ... with 8,855,064 more rows
```
…
Cell types:
```r

   HAP1    HeLa     MEF  Patski 
2205906 6649082       1       2 
```

## Sample: GSM2254219_PL2,human,unique.rds

	
```r
# A tibble: 13,912,930 x 8
# Groups:   chr_a [25]
   chr_a start_a  end_a chr_b   start_b     end_b celltype cell_index
   <chr>   <int>  <int> <chr>     <int>     <int> <chr>         <int>
 1 1      636631 636760 1       1178972   1179158 HAP1             58
 2 1      648845 648891 1        706635    706674 HeLa             59
 3 1      648845 648891 1        738044    738186 HeLa              7
 4 1      648845 648891 1        858596    858642 HeLa             60
 5 1      648845 648891 1       3462656   3462732 HAP1             61
 6 1      648845 648891 1       7571262   7571396 HeLa             62
 7 1      651131 651255 1        787985    788054 HeLa             67
 8 1      651131 651255 1      46975161  46975272 HeLa             68
 9 1      651131 651255 1     113629995 113630033 HeLa             69
10 1      672179 672220 1       1687827   1688035 HeLa             70
# ... with 13,912,920 more rows
```
…
Cell types:
```r

    HAP1     HeLa      MEF   Patski 
 3194182 10713017        1        3 
```

## Sample: GSM2438426_ML4,human,unique.rds

	
```r
# A tibble: 27,021,519 x 8
# Groups:   chr_a [23]
   chr_a start_a  end_a chr_b  start_b    end_b celltype     cell_index
   <chr>   <int>  <int> <chr>    <int>    <int> <chr>             <int>
 1 1       61887  62082 1       101667   101735 Nocadazole           20
 2 1       61887  62082 1       247984   248051 Nocadazole           20
 3 1      101667 101735 1      1885181  1885349 Nocadazole           54
 4 1      124901 124934 1     96664199 96664266 Nocadazole           91
 5 1      235158 235188 1     52253263 52253497 Asynchronous        120
 6 1      562004 562081 1     20898624 20898764 Nocadazole          153
 7 1      636630 636760 1      6425671  6425911 Nocadazole          157
 8 1      636630 636760 1     27252279 27252419 Nocadazole           74
 9 1      648845 648891 1      1517212  1517252 Nocadazole          159
10 1      648845 648891 1      4754301  4754455 Nocadazole          160
# ... with 27,021,509 more rows
```
…
Cell types:
```r

Asynchronous   Nocadazole 
     9677605     16710710 
```

# Organism: mouse

  
## Sample: GSM2254215_ML1,mouse,unique.rds

	
```r
# A tibble: 4,002,891 x 8
# Groups:   chr_a [22]
   chr_a start_a   end_a chr_b start_b   end_b celltype cell_index
   <chr>   <int>   <int> <chr>   <int>   <int> <chr>         <int>
 1 1     3000983 3001047 1     4965798 4965885 MEF               1
 2 1     3001122 3001293 1     3074714 3074770 Patski            2
 3 1     3003353 3003418 1     4320235 4320402 MEF               3
 4 1     3003486 3003575 1     3006173 3006412 MEF               4
 5 1     3003486 3003575 1     3008062 3008094 Patski            5
 6 1     3003604 3003815 1     3007753 3007894 Patski            6
 7 1     3003604 3003815 1     4337484 4337520 Patski            7
 8 1     3003944 3004012 1     4022994 4023131 Patski            8
 9 1     3004055 3004111 1     9903838 9903888 MEF               9
10 1     3005547 3005760 1     4366159 4366227 Patski           10
# ... with 4,002,881 more rows
```
…
Cell types:
```r

    MEF  Patski 
 202759 3450173 
```

## Sample: GSM2254216_ML2,mouse,unique.rds

	
```r
# A tibble: 2,929,110 x 8
# Groups:   chr_a [22]
   chr_a start_a   end_a chr_b  start_b    end_b celltype cell_index
   <chr>   <int>   <int> <chr>    <int>    <int> <chr>         <int>
 1 1     3003604 3003815 1     70492182 70492319 <NA>              2
 2 1     3003812 3004012 1      3717382  3717465 Patski            3
 3 1     3004324 3004563 1     21621468 21621554 Patski            4
 4 1     3005547 3005760 1     67040987 67041061 Patski            5
 5 1     3006173 3006309 1      3009141  3009232 Patski            6
 6 1     3007305 3007389 1      6836946  6836980 Patski            7
 7 1     3007753 3007894 1     15516931 15517005 MEF              10
 8 1     3008375 3008408 1      3011419  3011451 MEF              11
 9 1     3008412 3008485 1      3451673  3451726 Patski           12
10 1     3009056 3009103 1      3589463  3589516 Patski           13
# ... with 2,929,100 more rows
```
…
Cell types:
```r

    MEF  Patski 
 350996 2314028 
```

## Sample: GSM2254217_ML3,mouse,unique.rds

	
```r
# A tibble: 741,760 x 8
# Groups:   chr_a [22]
   chr_a start_a   end_a chr_b  start_b    end_b celltype cell_index
   <chr>   <int>   <int> <chr>    <int>    <int> <chr>         <int>
 1 1     3000984 3001047 1     23351683 23351757 MEF               1
 2 1     3006173 3006309 1      3006531  3006563 MEF               2
 3 1     3007393 3007454 1      4326789  4326851 Patski            3
 4 1     3008354 3008408 1      4710734  4710973 Patski            4
 5 1     3012619 3012668 1      5178289  5178348 <NA>              5
 6 1     3013262 3013309 1     36929665 36929724 Patski            3
 7 1     3014512 3014555 1     18533138 18533187 MEF               6
 8 1     3028842 3028900 1     22733715 22733776 MEF               7
 9 1     3032078 3032164 1      3048394  3048459 MEF               8
10 1     3035765 3035841 1     31976505 31976552 MEF              10
# ... with 741,750 more rows
```
…
Cell types:
```r

   MEF Patski 
399235 239268 
```

## Sample: GSM2254218_PL1,mouse,unique.rds

	
```r
# A tibble: 9,055,515 x 8
# Groups:   chr_a [22]
   chr_a start_a   end_a chr_b   start_b     end_b celltype cell_index
   <chr>   <int>   <int> <chr>     <int>     <int> <chr>         <int>
 1 1     3000748 3000812 1      17336484  17336681 Patski            1
 2 1     3000816 3000985 1       5889797   5889855 Patski            2
 3 1     3000816 3000985 1       6666639   6666751 Patski            3
 4 1     3000816 3000985 1     108504418 108504593 Patski            1
 5 1     3000816 3000985 1     166212738 166212800 Patski            4
 6 1     3000983 3001118 1       3008062   3008094 Patski            5
 7 1     3000983 3001047 1      47091788  47091885 Patski            6
 8 1     3000987 3001047 1       3067986   3068071 MEF               7
 9 1     3001798 3002017 1       4341744   4341842 Patski            8
10 1     3003213 3003265 1       3657464   3657537 MEF               9
# ... with 9,055,505 more rows
```
…
Cell types:
```r

   HAP1    HeLa     MEF  Patski 
      9       6 1146613 7908776 
```

## Sample: GSM2254219_PL2,mouse,unique.rds

	
```r
# A tibble: 16,115,940 x 8
# Groups:   chr_a [22]
   chr_a start_a   end_a chr_b  start_b    end_b celltype cell_index
   <chr>   <int>   <int> <chr>    <int>    <int> <chr>         <int>
 1 1     3000194 3000290 1      3380053  3380083 Patski            1
 2 1     3000194 3000356 1     28278273 28278326 Patski            2
 3 1     3000748 3000812 1      3036826  3036882 Patski            3
 4 1     3000748 3000812 1      4321086  4321202 Patski            4
 5 1     3000748 3000812 1      4339680  4339919 Patski            5
 6 1     3000748 3000812 1     21180408 21180507 Patski            6
 7 1     3000816 3000985 1      4223507  4223574 Patski            7
 8 1     3000816 3000985 1     15453757 15453795 MEF               8
 9 1     3000983 3001047 1      6537085  6537185 MEF              10
10 1     3003212 3003265 1      3034166  3034210 MEF              11
# ... with 16,115,930 more rows
```
…
Cell types:
```r

    HAP1     HeLa      MEF   Patski 
      82       44  1971223 14142703 
```

## Sample: GSM2438426_ML4,mouse,unique.rds

	
```r
# A tibble: 3,156,550 x 8
# Groups:   chr_a [20]
   chr_a start_a   end_a chr_b  start_b    end_b celltype cell_index
   <chr>   <int>   <int> <chr>    <int>    <int> <chr>         <int>
 1 1     3000983 3001118 1     46187073 46187119 Patski            1
 2 1     3003486 3003575 1      3007753  3007893 Patski            2
 3 1     3003486 3003600 1      3010457  3010499 Patski            3
 4 1     3003486 3003575 1      6887703  6887841 <NA>              4
 5 1     3003812 3004051 1      3266448  3266508 Patski            6
 6 1     3007393 3007461 1      3012057  3012248 Patski            8
 7 1     3008104 3008339 1      3008412  3008479 Patski            9
 8 1     3008412 3008485 1      3009117  3009232 Patski           10
 9 1     3008691 3008930 1     39786341 39786393 Patski           11
10 1     3009056 3009103 1      5662792  5662882 Patski           12
# ... with 3,156,540 more rows
```
…
